{
    "resourceNameTruncated": "pointse6435177",
    "userPoolName": "pointsvilleappe6435177_userpool_e6435177",
    "autoVerifiedAttributes": [
        "email"
    ],
    "mfaConfiguration": "OFF",
    "mfaTypes": [
        "SMS Text Message"
    ],
    "smsAuthenticationMessage": "Your authentication code is {####}",
    "smsVerificationMessage": "Your verification code is {####}",
    "emailVerificationSubject": "Your verification code",
    "emailVerificationMessage": "Your verification code is {####}",
    "defaultPasswordPolicy": true,
    "passwordPolicyMinLength": 8,
    "passwordPolicyCharacters": [
        "Requires Lowercase",
        "Requires Uppercase",
        "Requires Numbers",
        "Requires Symbols"
    ],
    "requiredAttributes": [
        "email",
        "given_name",
        "phone_number"
    ],
    "userpoolClientGenerateSecret": true,
    "userpoolClientRefreshTokenValidity": 30,
    "userpoolClientWriteAttributes": [
        "address",
        "birthdate",
        "family_name",
        "middle_name",
        "gender",
        "locale",
        "name",
        "nickname",
        "preferred_username",
        "picture",
        "profile",
        "updated_at",
        "website",
        "zoneinfo",
        "email",
        "given_name",
        "phone_number"
    ],
    "userpoolClientReadAttributes": [
        "address",
        "birthdate",
        "email",
        "family_name",
        "middle_name",
        "gender",
        "locale",
        "given_name",
        "name",
        "nickname",
        "phone_number",
        "preferred_username",
        "picture",
        "profile",
        "updated_at",
        "website",
        "zoneinfo",
        "email_verified",
        "phone_number_verified"
    ],
    "userpoolClientLambdaRole": "pointse6435177_userpoolclient_lambda_role",
    "userpoolClientSetAttributes": true,
    "sharedId": "e6435177",
    "resourceName": "pointsvilleappe6435177e6435177",
    "authSelections": "userPoolOnly",
    "authRoleArn": {
        "Fn::GetAtt": [
            "AuthRole",
            "Arn"
        ]
    },
    "unauthRoleArn": {
        "Fn::GetAtt": [
            "UnauthRole",
            "Arn"
        ]
    },
    "useDefault": "manual",
    "usernameAttributes": [
        "email, phone_number"
    ],
    "userPoolGroups": false,
    "adminQueries": false,
    "triggers": "{}",
    "hostedUI": true,
    "hostedUIDomainName": "pointsvilleappe6435177-e6435177",
    "authProvidersUserPool": [
        "Google"
    ],
    "hostedUIProviderMeta": "[{\"ProviderName\":\"Google\",\"authorize_scopes\":\"openid email profile\",\"AttributeMapping\":{\"email\":\"email\",\"given_name\":\"given_name\",\"phone_number\":\"phoneNumbers\",\"username\":\"sub\"}}]",
    "oAuthMetadata": "{\"AllowedOAuthFlows\":[\"code\"],\"AllowedOAuthScopes\":[\"phone\",\"email\",\"openid\",\"profile\",\"aws.cognito.signin.user.admin\"],\"CallbackURLs\":[\"http://localhost:3000/\"],\"LogoutURLs\":[\"http://localhost:3000/signout/\"]}",
    "userPoolGroupList": [],
    "serviceName": "Cognito",
    "parentStack": {
        "Ref": "AWS::StackId"
    },
    "permissions": [],
    "dependsOn": []
}