<?xml version="1.0" encoding="UTF-8"?>
<svg width="14px" height="14px" viewBox="0 0 14 14" version="1.1" xmlns="http://www.w3.org/2000/svg" xmlns:xlink="http://www.w3.org/1999/xlink">
    <title>7DA57198-0F34-419A-B768-4BC279C6A9A2@2x</title>
    <g id="Page-1" stroke="none" stroke-width="1" fill="none" fill-rule="evenodd">
        <g id="01A-Manage-Clubs" transform="translate(-429.000000, -216.000000)" fill="#A5A5A5">
            <g id="Group" transform="translate(110.000000, 108.000000)">
                <g id="01" transform="translate(0.000000, 46.000000)">
                    <g id="03" transform="translate(318.000000, 62.000000)">
                        <g id="Icons-/-General-/-Member" transform="translate(1.000000, 0.000000)">
                            <path d="M7,8.75 C9.34,8.75 14,9.92 14,12.25 L14,12.25 L14,14 L0,14 L0,12.25 C0,9.92 4.66,8.75 7,8.75 Z M7,0 C8.93,0 10.5,1.57 10.5,3.5 C10.5,5.43 8.93,7 7,7 C5.07,7 3.5,5.43 3.5,3.5 C3.5,1.57 5.07,0 7,0 Z" id="Combined-Shape"></path>
                        </g>
                    </g>
                </g>
            </g>
        </g>
    </g>
</svg>