<?xml version="1.0" encoding="UTF-8"?>
<svg width="30px" height="30px" viewBox="0 0 30 30" version="1.1" xmlns="http://www.w3.org/2000/svg" xmlns:xlink="http://www.w3.org/1999/xlink">
    <title>Org / org-empty@2x</title>
    <g id="Org-/-org-empty" stroke="none" stroke-width="1" fill="none" fill-rule="evenodd">
        <circle id="Oval" stroke="#979797" stroke-width="0.5" cx="15" cy="15" r="13.75"></circle>
        <path d="M17.7477954,9 C18.3102628,9 18.7551287,9.45175752 18.7551287,10.0090287 L18.7551287,10.0090287 L18.755,20 L19.5,20 C19.7761424,20 20,20.2238576 20,20.5 C20,20.7761424 19.7761424,21 19.5,21 L10.5,21 C10.2238576,21 10,20.7761424 10,20.5 C10,20.2238576 10.2238576,20 10.5,20 L11.285,20 L11.285901,10.0090287 C11.285901,9.47842432 11.6787708,9.05930534 12.1834742,9.00578105 L12.2932343,9 Z M17.5089948,9.84279983 L12.4910052,9.84279983 C12.2278805,9.84279983 12,10.0683127 12,10.346497 L12,10.346497 L12,19.4963029 C12,19.7687685 12.2254789,20 12.5036211,20 L12.5036211,20 L14.3747393,20 L14.3747393,18.26768 C14.3747393,18.1011623 14.5109808,17.9678257 14.6790433,17.9678257 L14.6790433,17.9678257 L15.2763531,17.9678257 C15.4516027,17.9678257 15.580657,18.102075 15.580657,18.26768 L15.580657,18.26768 L15.580657,20 L17.4987106,20 C17.7767306,20 18,19.7744871 18,19.4963029 L18,19.4963029 L18,10.346497 C18,10.0740313 17.7801695,9.84279983 17.5089948,9.84279983 L17.5089948,9.84279983 Z M13,11.7053757 C13,11.8680922 13.1390457,12 13.2946243,12 L13.7053757,12 C13.8680922,12 14,11.8609543 14,11.7053757 L14,11.2946243 C14,11.1319078 13.8609543,11 13.7053757,11 L13.2946243,11 C13.1319078,11 13,11.1390457 13,11.2946243 L13,11.7053757 Z M13,13.7053757 C13,13.8680922 13.1390457,14 13.2946243,14 L13.7053757,14 C13.8680922,14 14,13.8609543 14,13.7053757 L14,13.2946243 C14,13.1319078 13.8609543,13 13.7053757,13 L13.2946243,13 C13.1319078,13 13,13.1390457 13,13.2946243 L13,13.7053757 Z M16,11.7053757 C16,11.8680922 16.1390457,12 16.2946243,12 L16.7053757,12 C16.8680922,12 17,11.8609543 17,11.7053757 L17,11.2946243 C17,11.1319078 16.8609543,11 16.7053757,11 L16.2946243,11 C16.1319078,11 16,11.1390457 16,11.2946243 L16,11.7053757 Z M16,13.7053757 C16,13.8680922 16.1390457,14 16.2946243,14 L16.7053757,14 C16.8680922,14 17,13.8609543 17,13.7053757 L17,13.2946243 C17,13.1319078 16.8609543,13 16.7053757,13 L16.2946243,13 C16.1319078,13 16,13.1390457 16,13.2946243 L16,13.7053757 Z M13,15.7053757 C13,15.8680922 13.1390457,16 13.2946243,16 L13.7053757,16 C13.8680922,16 14,15.8609543 14,15.7053757 L14,15.2946243 C14,15.1319078 13.8609543,15 13.7053757,15 L13.2946243,15 C13.1319078,15 13,15.1390457 13,15.2946243 L13,15.7053757 Z M16,15.7053757 C16,15.8680922 16.1390457,16 16.2946243,16 L16.7053757,16 C16.8680922,16 17,15.8609543 17,15.7053757 L17,15.2946243 C17,15.1319078 16.8609543,15 16.7053757,15 L16.2946243,15 C16.1319078,15 16,15.1390457 16,15.2946243 L16,15.7053757 Z" id="building-[#808]" fill="#918F8F"></path>
    </g>
</svg>